Retail Project
…
ARIMA_fc %>%
  hilo(level = 95) %>%
  mutate(
    lower = `95%`$lower,
    upper = `95%`$upper
  )

## # A tsibble: 24 x 9 [1M]
## # Key:       State, Industry, .model [1]
##    State   Indus .model    Month         Turnover .mean                  `95%`
##    <chr>   <chr>   <chr>     <mth>           <dist> <dbl>                 <hilo>
##  1 Victor Depart ARIMA 2017 Jan  t(N(10, 0.017))  362. [328.7498, 396.4392]95
##  2 Victor Depart ARIMA 2017 Feb t(N(9.6, 0.017))  287. [259.7970, 315.7081]95
##  3 Victor Depart ARIMA 2017 Mar  t(N(10, 0.018))  361. [327.6996, 396.4863]95
##  4 Victor Depart ARIMA 2017 Apr  t(N(10, 0.018))  371. [336.5080, 407.5462]95
##  5 Victor Depart ARIMA 2017 May  t(N(10, 0.019))  366. [331.7726, 402.8257]95
##  6 Victor Depart ARIMA 2017 Jun  t(N(10, 0.019))  390. [352.8616, 428.4091]95
##  7 Victor Depart ARIMA 2017 Jul   t(N(10, 0.02))  370. [334.9287, 408.1449]95
##  8 Victor Depart ARIMA 2017 Aug  t(N(9.9, 0.02))  327. [294.7829, 361.5035]95
##  9 Victor Depart ARIMA 2017 Sep   t(N(10, 0.02))  341. [307.3401, 377.0995]95
## 10 Victor Depart ARIMA 2017 Oct  t(N(10, 0.021))  373. [336.6635, 412.5718]95
## #  with 14 more rows, 2 more variables: lower <dbl>, upper <dbl>, and
## #   abbreviated variable name Industry

ETS_fc %>%
  hilo(level = 95) %>%
  mutate(
    lower = `95%`$lower,
    upper = `95%`$upper
  )

## # A tsibble: 24 x 9 [1M]
## # Key:       State, Industry, .model [1]
##    State   Indus .model    Month         Turnover .mean                  `95%`
##    <chr>   <chr>   <chr>     <mth>           <dist> <dbl>                 <hilo>
##  1 Victor Depart auto   2017 Jan  t(N(10, 0.018))  364. [329.9124, 399.6035]95
##  2 Victor Depart auto   2017 Feb t(N(9.6, 0.019))  286. [258.1422, 315.6234]95
##  3 Victor Depart auto   2017 Mar  t(N(10, 0.019))  361. [326.8433, 397.0027]95
##  4 Victor Depart auto   2017 Apr  t(N(10, 0.019))  374. [338.4931, 411.2739]95
##  5 Victor Depart auto   2017 May  t(N(10, 0.019))  368. [332.8070, 405.2361]95
##  6 Victor Depart auto   2017 Jun   t(N(10, 0.02))  388. [351.2557, 427.6659]95
##  7 Victor Depart auto   2017 Jul   t(N(10, 0.02))  377. [340.5358, 415.8224]95
##  8 Victor Depart auto   2017 Aug  t(N(10, 0.021))  333. [300.1951, 368.9110]95
##  9 Victor Depart auto   2017 Sep  t(N(10, 0.021))  346. [311.0579, 382.6289]95
## 10 Victor Depart auto   2017 Oct  t(N(10, 0.022))  382. [343.8070, 422.4193]95
## #  with 14 more rows, 2 more variables: lower <dbl>, upper <dbl>, and
## #   abbreviated variable name Industry
…
final_ARIMA_fc %>%
  hilo(level = 80) %>%
  mutate(
    lower = `80%`$lower,
    upper = `80%`$upper
  )

## # A tsibble: 24 x 9 [1M]
## # Key:       State, Industry, .model [1]
##    State   Indus .model    Month         Turnover .mean                  `80%`
##    <chr>   <chr>   <chr>     <mth>           <dist> <dbl>                 <hilo>
##  1 Victor Depart final 2019 Jan  t(N(10, 0.017))  364. [342.5189, 386.2132]80
##  2 Victor Depart final 2019 Feb t(N(9.6, 0.017))  287. [269.4873, 305.4033]80
##  3 Victor Depart final 2019 Mar  t(N(10, 0.017))  367. [344.7977, 389.5026]80
##  4 Victor Depart final 2019 Apr  t(N(10, 0.018))  381. [357.9130, 404.4766]80
##  5 Victor Depart final 2019 May  t(N(10, 0.018))  385. [361.9554, 409.4753]80
##  6 Victor Depart final 2019 Jun  t(N(10, 0.018))  399. [374.5933, 423.9917]80
##  7 Victor Depart final 2019 Jul  t(N(10, 0.019))  374. [350.2271, 397.4751]80
##  8 Victor Depart final 2019 Aug  t(N(10, 0.019))  339. [317.5100, 361.5681]80
##  9 Victor Depart final 2019 Sep   t(N(10, 0.02))  353. [330.6555, 376.6637]80
## 10 Victor Depart final 2019 Oct   t(N(10, 0.02))  388. [363.4460, 413.6497]80
## #  with 14 more rows, 2 more variables: lower <dbl>, upper <dbl>, and
## #   abbreviated variable name Industry
…
final_ETS_fc %>%
  hilo(level = 80) %>%
  mutate(
    lower = `80%`$lower,
    upper = `80%`$upper
  )

## # A tsibble: 24 x 9 [1M]
## # Key:       State, Industry, .model [1]
##    State   Indus .model    Month         Turnover .mean                  `80%`
##    <chr>   <chr>   <chr>     <mth>           <dist> <dbl>                 <hilo>
##  1 Victor Depart final 2019 Jan  t(N(10, 0.018))  369. [346.7974, 392.0705]80
##  2 Victor Depart final 2019 Feb t(N(9.6, 0.018))  289. [270.7716, 308.0070]80
##  3 Victor Depart final 2019 Mar  t(N(10, 0.018))  367. [344.8242, 390.5573]80
##  4 Victor Depart final 2019 Apr  t(N(10, 0.018))  385. [361.6242, 409.5815]80
##  5 Victor Depart final 2019 May  t(N(10, 0.019))  383. [358.7260, 406.8166]80
##  6 Victor Depart final 2019 Jun  t(N(10, 0.019))  399. [374.0783, 424.3547]80
##  7 Victor Depart final 2019 Jul   t(N(10, 0.02))  377. [352.5668, 400.9938]80
##  8 Victor Depart final 2019 Aug   t(N(10, 0.02))  339. [316.5113, 361.3742]80
##  9 Victor Depart final 2019 Sep   t(N(10, 0.02))  354. [330.7515, 377.8464]80
## 10 Victor Depart final 2019 Oct  t(N(10, 0.021))  390. [364.7839, 416.4901]80
## #  with 14 more rows, 2 more variables: lower <dbl>, upper <dbl>, and
## #   abbreviated variable name Industry
…
